[gd_scene load_steps=4 format=3 uid="uid://c6fljdklxxgu"]

[ext_resource type="Script" path="res://MainMenu.gd" id="1_17638"]

[sub_resource type="SystemFont" id="SystemFont_j7urb"]

[sub_resource type="FontFile" id="FontFile_wbaqw"]
cache/0/16/0/ascent = 0.0
cache/0/16/0/descent = 0.0
cache/0/16/0/underline_position = 0.0
cache/0/16/0/underline_thickness = 0.0
cache/0/16/0/scale = 1.0
cache/0/16/0/kerning_overrides/16/0 = Vector2(0, 0)
cache/0/16/0/kerning_overrides/26/0 = Vector2(0, 0)
cache/0/16/0/kerning_overrides/31/0 = Vector2(0, 0)
cache/0/16/0/kerning_overrides/46/0 = Vector2(0, 0)
cache/0/16/0/kerning_overrides/56/0 = Vector2(0, 0)
cache/0/16/0/kerning_overrides/61/0 = Vector2(0, 0)
cache/0/16/0/kerning_overrides/71/0 = Vector2(0, 0)
cache/0/16/0/kerning_overrides/81/0 = Vector2(0, 0)
cache/0/16/0/kerning_overrides/91/0 = Vector2(0, 0)
cache/0/16/0/kerning_overrides/96/0 = Vector2(0, 0)
cache/0/16/0/kerning_overrides/106/0 = Vector2(0, 0)
cache/0/16/0/kerning_overrides/116/0 = Vector2(0, 0)
cache/0/16/0/kerning_overrides/126/0 = Vector2(0, 0)
cache/0/16/0/kerning_overrides/131/0 = Vector2(0, 0)
cache/0/16/0/kerning_overrides/136/0 = Vector2(0, 0)
cache/0/16/0/kerning_overrides/146/0 = Vector2(0, 0)
cache/0/16/0/kerning_overrides/156/0 = Vector2(0, 0)
cache/0/16/0/kerning_overrides/161/0 = Vector2(0, 0)
cache/0/16/0/kerning_overrides/166/0 = Vector2(0, 0)
cache/0/16/0/kerning_overrides/171/0 = Vector2(0, 0)
cache/0/16/0/kerning_overrides/176/0 = Vector2(0, 0)
cache/0/16/0/kerning_overrides/181/0 = Vector2(0, 0)
cache/0/16/0/kerning_overrides/141/0 = Vector2(0, 0)
cache/0/16/0/kerning_overrides/121/0 = Vector2(0, 0)
cache/0/16/0/kerning_overrides/111/0 = Vector2(0, 0)
cache/0/16/0/kerning_overrides/101/0 = Vector2(0, 0)
cache/0/16/0/kerning_overrides/86/0 = Vector2(0, 0)
cache/0/16/0/kerning_overrides/66/0 = Vector2(0, 0)
cache/0/16/0/kerning_overrides/76/0 = Vector2(0, 0)
cache/0/16/0/kerning_overrides/14/0 = Vector2(0, 0)
cache/0/16/0/kerning_overrides/30/0 = Vector2(0, 0)
cache/0/26/0/ascent = 0.0
cache/0/26/0/descent = 0.0
cache/0/26/0/underline_position = 0.0
cache/0/26/0/underline_thickness = 0.0
cache/0/26/0/scale = 1.0
cache/0/26/0/kerning_overrides/16/0 = Vector2(0, 0)
cache/0/26/0/kerning_overrides/26/0 = Vector2(0, 0)
cache/0/26/0/kerning_overrides/31/0 = Vector2(0, 0)
cache/0/26/0/kerning_overrides/46/0 = Vector2(0, 0)
cache/0/26/0/kerning_overrides/56/0 = Vector2(0, 0)
cache/0/26/0/kerning_overrides/61/0 = Vector2(0, 0)
cache/0/26/0/kerning_overrides/71/0 = Vector2(0, 0)
cache/0/26/0/kerning_overrides/81/0 = Vector2(0, 0)
cache/0/26/0/kerning_overrides/91/0 = Vector2(0, 0)
cache/0/26/0/kerning_overrides/96/0 = Vector2(0, 0)
cache/0/26/0/kerning_overrides/106/0 = Vector2(0, 0)
cache/0/26/0/kerning_overrides/116/0 = Vector2(0, 0)
cache/0/26/0/kerning_overrides/126/0 = Vector2(0, 0)
cache/0/26/0/kerning_overrides/131/0 = Vector2(0, 0)
cache/0/26/0/kerning_overrides/136/0 = Vector2(0, 0)
cache/0/26/0/kerning_overrides/146/0 = Vector2(0, 0)
cache/0/26/0/kerning_overrides/156/0 = Vector2(0, 0)
cache/0/26/0/kerning_overrides/161/0 = Vector2(0, 0)
cache/0/26/0/kerning_overrides/166/0 = Vector2(0, 0)
cache/0/26/0/kerning_overrides/171/0 = Vector2(0, 0)
cache/0/26/0/kerning_overrides/176/0 = Vector2(0, 0)
cache/0/26/0/kerning_overrides/181/0 = Vector2(0, 0)
cache/0/26/0/kerning_overrides/141/0 = Vector2(0, 0)
cache/0/26/0/kerning_overrides/121/0 = Vector2(0, 0)
cache/0/26/0/kerning_overrides/111/0 = Vector2(0, 0)
cache/0/26/0/kerning_overrides/101/0 = Vector2(0, 0)
cache/0/26/0/kerning_overrides/86/0 = Vector2(0, 0)
cache/0/26/0/kerning_overrides/66/0 = Vector2(0, 0)
cache/0/26/0/kerning_overrides/76/0 = Vector2(0, 0)
cache/0/26/0/kerning_overrides/14/0 = Vector2(0, 0)
cache/0/26/0/kerning_overrides/30/0 = Vector2(0, 0)
cache/0/31/0/ascent = 0.0
cache/0/31/0/descent = 0.0
cache/0/31/0/underline_position = 0.0
cache/0/31/0/underline_thickness = 0.0
cache/0/31/0/scale = 1.0
cache/0/31/0/kerning_overrides/16/0 = Vector2(0, 0)
cache/0/31/0/kerning_overrides/26/0 = Vector2(0, 0)
cache/0/31/0/kerning_overrides/31/0 = Vector2(0, 0)
cache/0/31/0/kerning_overrides/46/0 = Vector2(0, 0)
cache/0/31/0/kerning_overrides/56/0 = Vector2(0, 0)
cache/0/31/0/kerning_overrides/61/0 = Vector2(0, 0)
cache/0/31/0/kerning_overrides/71/0 = Vector2(0, 0)
cache/0/31/0/kerning_overrides/81/0 = Vector2(0, 0)
cache/0/31/0/kerning_overrides/91/0 = Vector2(0, 0)
cache/0/31/0/kerning_overrides/96/0 = Vector2(0, 0)
cache/0/31/0/kerning_overrides/106/0 = Vector2(0, 0)
cache/0/31/0/kerning_overrides/116/0 = Vector2(0, 0)
cache/0/31/0/kerning_overrides/126/0 = Vector2(0, 0)
cache/0/31/0/kerning_overrides/131/0 = Vector2(0, 0)
cache/0/31/0/kerning_overrides/136/0 = Vector2(0, 0)
cache/0/31/0/kerning_overrides/146/0 = Vector2(0, 0)
cache/0/31/0/kerning_overrides/156/0 = Vector2(0, 0)
cache/0/31/0/kerning_overrides/161/0 = Vector2(0, 0)
cache/0/31/0/kerning_overrides/166/0 = Vector2(0, 0)
cache/0/31/0/kerning_overrides/171/0 = Vector2(0, 0)
cache/0/31/0/kerning_overrides/176/0 = Vector2(0, 0)
cache/0/31/0/kerning_overrides/181/0 = Vector2(0, 0)
cache/0/31/0/kerning_overrides/141/0 = Vector2(0, 0)
cache/0/31/0/kerning_overrides/121/0 = Vector2(0, 0)
cache/0/31/0/kerning_overrides/111/0 = Vector2(0, 0)
cache/0/31/0/kerning_overrides/101/0 = Vector2(0, 0)
cache/0/31/0/kerning_overrides/86/0 = Vector2(0, 0)
cache/0/31/0/kerning_overrides/66/0 = Vector2(0, 0)
cache/0/31/0/kerning_overrides/76/0 = Vector2(0, 0)
cache/0/31/0/kerning_overrides/14/0 = Vector2(0, 0)
cache/0/31/0/kerning_overrides/30/0 = Vector2(0, 0)
cache/0/46/0/ascent = 0.0
cache/0/46/0/descent = 0.0
cache/0/46/0/underline_position = 0.0
cache/0/46/0/underline_thickness = 0.0
cache/0/46/0/scale = 1.0
cache/0/46/0/kerning_overrides/16/0 = Vector2(0, 0)
cache/0/46/0/kerning_overrides/26/0 = Vector2(0, 0)
cache/0/46/0/kerning_overrides/31/0 = Vector2(0, 0)
cache/0/46/0/kerning_overrides/46/0 = Vector2(0, 0)
cache/0/46/0/kerning_overrides/56/0 = Vector2(0, 0)
cache/0/46/0/kerning_overrides/61/0 = Vector2(0, 0)
cache/0/46/0/kerning_overrides/71/0 = Vector2(0, 0)
cache/0/46/0/kerning_overrides/81/0 = Vector2(0, 0)
cache/0/46/0/kerning_overrides/91/0 = Vector2(0, 0)
cache/0/46/0/kerning_overrides/96/0 = Vector2(0, 0)
cache/0/46/0/kerning_overrides/106/0 = Vector2(0, 0)
cache/0/46/0/kerning_overrides/116/0 = Vector2(0, 0)
cache/0/46/0/kerning_overrides/126/0 = Vector2(0, 0)
cache/0/46/0/kerning_overrides/131/0 = Vector2(0, 0)
cache/0/46/0/kerning_overrides/136/0 = Vector2(0, 0)
cache/0/46/0/kerning_overrides/146/0 = Vector2(0, 0)
cache/0/46/0/kerning_overrides/156/0 = Vector2(0, 0)
cache/0/46/0/kerning_overrides/161/0 = Vector2(0, 0)
cache/0/46/0/kerning_overrides/166/0 = Vector2(0, 0)
cache/0/46/0/kerning_overrides/171/0 = Vector2(0, 0)
cache/0/46/0/kerning_overrides/176/0 = Vector2(0, 0)
cache/0/46/0/kerning_overrides/181/0 = Vector2(0, 0)
cache/0/46/0/kerning_overrides/141/0 = Vector2(0, 0)
cache/0/46/0/kerning_overrides/121/0 = Vector2(0, 0)
cache/0/46/0/kerning_overrides/111/0 = Vector2(0, 0)
cache/0/46/0/kerning_overrides/101/0 = Vector2(0, 0)
cache/0/46/0/kerning_overrides/86/0 = Vector2(0, 0)
cache/0/46/0/kerning_overrides/66/0 = Vector2(0, 0)
cache/0/46/0/kerning_overrides/76/0 = Vector2(0, 0)
cache/0/46/0/kerning_overrides/14/0 = Vector2(0, 0)
cache/0/46/0/kerning_overrides/30/0 = Vector2(0, 0)
cache/0/56/0/ascent = 0.0
cache/0/56/0/descent = 0.0
cache/0/56/0/underline_position = 0.0
cache/0/56/0/underline_thickness = 0.0
cache/0/56/0/scale = 1.0
cache/0/56/0/kerning_overrides/16/0 = Vector2(0, 0)
cache/0/56/0/kerning_overrides/26/0 = Vector2(0, 0)
cache/0/56/0/kerning_overrides/31/0 = Vector2(0, 0)
cache/0/56/0/kerning_overrides/46/0 = Vector2(0, 0)
cache/0/56/0/kerning_overrides/56/0 = Vector2(0, 0)
cache/0/56/0/kerning_overrides/61/0 = Vector2(0, 0)
cache/0/56/0/kerning_overrides/71/0 = Vector2(0, 0)
cache/0/56/0/kerning_overrides/81/0 = Vector2(0, 0)
cache/0/56/0/kerning_overrides/91/0 = Vector2(0, 0)
cache/0/56/0/kerning_overrides/96/0 = Vector2(0, 0)
cache/0/56/0/kerning_overrides/106/0 = Vector2(0, 0)
cache/0/56/0/kerning_overrides/116/0 = Vector2(0, 0)
cache/0/56/0/kerning_overrides/126/0 = Vector2(0, 0)
cache/0/56/0/kerning_overrides/131/0 = Vector2(0, 0)
cache/0/56/0/kerning_overrides/136/0 = Vector2(0, 0)
cache/0/56/0/kerning_overrides/146/0 = Vector2(0, 0)
cache/0/56/0/kerning_overrides/156/0 = Vector2(0, 0)
cache/0/56/0/kerning_overrides/161/0 = Vector2(0, 0)
cache/0/56/0/kerning_overrides/166/0 = Vector2(0, 0)
cache/0/56/0/kerning_overrides/171/0 = Vector2(0, 0)
cache/0/56/0/kerning_overrides/176/0 = Vector2(0, 0)
cache/0/56/0/kerning_overrides/181/0 = Vector2(0, 0)
cache/0/56/0/kerning_overrides/141/0 = Vector2(0, 0)
cache/0/56/0/kerning_overrides/121/0 = Vector2(0, 0)
cache/0/56/0/kerning_overrides/111/0 = Vector2(0, 0)
cache/0/56/0/kerning_overrides/101/0 = Vector2(0, 0)
cache/0/56/0/kerning_overrides/86/0 = Vector2(0, 0)
cache/0/56/0/kerning_overrides/66/0 = Vector2(0, 0)
cache/0/56/0/kerning_overrides/76/0 = Vector2(0, 0)
cache/0/56/0/kerning_overrides/14/0 = Vector2(0, 0)
cache/0/56/0/kerning_overrides/30/0 = Vector2(0, 0)
cache/0/61/0/ascent = 0.0
cache/0/61/0/descent = 0.0
cache/0/61/0/underline_position = 0.0
cache/0/61/0/underline_thickness = 0.0
cache/0/61/0/scale = 1.0
cache/0/61/0/kerning_overrides/16/0 = Vector2(0, 0)
cache/0/61/0/kerning_overrides/26/0 = Vector2(0, 0)
cache/0/61/0/kerning_overrides/31/0 = Vector2(0, 0)
cache/0/61/0/kerning_overrides/46/0 = Vector2(0, 0)
cache/0/61/0/kerning_overrides/56/0 = Vector2(0, 0)
cache/0/61/0/kerning_overrides/61/0 = Vector2(0, 0)
cache/0/61/0/kerning_overrides/71/0 = Vector2(0, 0)
cache/0/61/0/kerning_overrides/81/0 = Vector2(0, 0)
cache/0/61/0/kerning_overrides/91/0 = Vector2(0, 0)
cache/0/61/0/kerning_overrides/96/0 = Vector2(0, 0)
cache/0/61/0/kerning_overrides/106/0 = Vector2(0, 0)
cache/0/61/0/kerning_overrides/116/0 = Vector2(0, 0)
cache/0/61/0/kerning_overrides/126/0 = Vector2(0, 0)
cache/0/61/0/kerning_overrides/131/0 = Vector2(0, 0)
cache/0/61/0/kerning_overrides/136/0 = Vector2(0, 0)
cache/0/61/0/kerning_overrides/146/0 = Vector2(0, 0)
cache/0/61/0/kerning_overrides/156/0 = Vector2(0, 0)
cache/0/61/0/kerning_overrides/161/0 = Vector2(0, 0)
cache/0/61/0/kerning_overrides/166/0 = Vector2(0, 0)
cache/0/61/0/kerning_overrides/171/0 = Vector2(0, 0)
cache/0/61/0/kerning_overrides/176/0 = Vector2(0, 0)
cache/0/61/0/kerning_overrides/181/0 = Vector2(0, 0)
cache/0/61/0/kerning_overrides/141/0 = Vector2(0, 0)
cache/0/61/0/kerning_overrides/121/0 = Vector2(0, 0)
cache/0/61/0/kerning_overrides/111/0 = Vector2(0, 0)
cache/0/61/0/kerning_overrides/101/0 = Vector2(0, 0)
cache/0/61/0/kerning_overrides/86/0 = Vector2(0, 0)
cache/0/61/0/kerning_overrides/66/0 = Vector2(0, 0)
cache/0/61/0/kerning_overrides/76/0 = Vector2(0, 0)
cache/0/61/0/kerning_overrides/14/0 = Vector2(0, 0)
cache/0/61/0/kerning_overrides/30/0 = Vector2(0, 0)
cache/0/71/0/ascent = 0.0
cache/0/71/0/descent = 0.0
cache/0/71/0/underline_position = 0.0
cache/0/71/0/underline_thickness = 0.0
cache/0/71/0/scale = 1.0
cache/0/71/0/kerning_overrides/16/0 = Vector2(0, 0)
cache/0/71/0/kerning_overrides/26/0 = Vector2(0, 0)
cache/0/71/0/kerning_overrides/31/0 = Vector2(0, 0)
cache/0/71/0/kerning_overrides/46/0 = Vector2(0, 0)
cache/0/71/0/kerning_overrides/56/0 = Vector2(0, 0)
cache/0/71/0/kerning_overrides/61/0 = Vector2(0, 0)
cache/0/71/0/kerning_overrides/71/0 = Vector2(0, 0)
cache/0/71/0/kerning_overrides/81/0 = Vector2(0, 0)
cache/0/71/0/kerning_overrides/91/0 = Vector2(0, 0)
cache/0/71/0/kerning_overrides/96/0 = Vector2(0, 0)
cache/0/71/0/kerning_overrides/106/0 = Vector2(0, 0)
cache/0/71/0/kerning_overrides/116/0 = Vector2(0, 0)
cache/0/71/0/kerning_overrides/126/0 = Vector2(0, 0)
cache/0/71/0/kerning_overrides/131/0 = Vector2(0, 0)
cache/0/71/0/kerning_overrides/136/0 = Vector2(0, 0)
cache/0/71/0/kerning_overrides/146/0 = Vector2(0, 0)
cache/0/71/0/kerning_overrides/156/0 = Vector2(0, 0)
cache/0/71/0/kerning_overrides/161/0 = Vector2(0, 0)
cache/0/71/0/kerning_overrides/166/0 = Vector2(0, 0)
cache/0/71/0/kerning_overrides/171/0 = Vector2(0, 0)
cache/0/71/0/kerning_overrides/176/0 = Vector2(0, 0)
cache/0/71/0/kerning_overrides/181/0 = Vector2(0, 0)
cache/0/71/0/kerning_overrides/141/0 = Vector2(0, 0)
cache/0/71/0/kerning_overrides/121/0 = Vector2(0, 0)
cache/0/71/0/kerning_overrides/111/0 = Vector2(0, 0)
cache/0/71/0/kerning_overrides/101/0 = Vector2(0, 0)
cache/0/71/0/kerning_overrides/86/0 = Vector2(0, 0)
cache/0/71/0/kerning_overrides/66/0 = Vector2(0, 0)
cache/0/71/0/kerning_overrides/76/0 = Vector2(0, 0)
cache/0/71/0/kerning_overrides/14/0 = Vector2(0, 0)
cache/0/71/0/kerning_overrides/30/0 = Vector2(0, 0)
cache/0/81/0/ascent = 0.0
cache/0/81/0/descent = 0.0
cache/0/81/0/underline_position = 0.0
cache/0/81/0/underline_thickness = 0.0
cache/0/81/0/scale = 1.0
cache/0/81/0/kerning_overrides/16/0 = Vector2(0, 0)
cache/0/81/0/kerning_overrides/26/0 = Vector2(0, 0)
cache/0/81/0/kerning_overrides/31/0 = Vector2(0, 0)
cache/0/81/0/kerning_overrides/46/0 = Vector2(0, 0)
cache/0/81/0/kerning_overrides/56/0 = Vector2(0, 0)
cache/0/81/0/kerning_overrides/61/0 = Vector2(0, 0)
cache/0/81/0/kerning_overrides/71/0 = Vector2(0, 0)
cache/0/81/0/kerning_overrides/81/0 = Vector2(0, 0)
cache/0/81/0/kerning_overrides/91/0 = Vector2(0, 0)
cache/0/81/0/kerning_overrides/96/0 = Vector2(0, 0)
cache/0/81/0/kerning_overrides/106/0 = Vector2(0, 0)
cache/0/81/0/kerning_overrides/116/0 = Vector2(0, 0)
cache/0/81/0/kerning_overrides/126/0 = Vector2(0, 0)
cache/0/81/0/kerning_overrides/131/0 = Vector2(0, 0)
cache/0/81/0/kerning_overrides/136/0 = Vector2(0, 0)
cache/0/81/0/kerning_overrides/146/0 = Vector2(0, 0)
cache/0/81/0/kerning_overrides/156/0 = Vector2(0, 0)
cache/0/81/0/kerning_overrides/161/0 = Vector2(0, 0)
cache/0/81/0/kerning_overrides/166/0 = Vector2(0, 0)
cache/0/81/0/kerning_overrides/171/0 = Vector2(0, 0)
cache/0/81/0/kerning_overrides/176/0 = Vector2(0, 0)
cache/0/81/0/kerning_overrides/181/0 = Vector2(0, 0)
cache/0/81/0/kerning_overrides/141/0 = Vector2(0, 0)
cache/0/81/0/kerning_overrides/121/0 = Vector2(0, 0)
cache/0/81/0/kerning_overrides/111/0 = Vector2(0, 0)
cache/0/81/0/kerning_overrides/101/0 = Vector2(0, 0)
cache/0/81/0/kerning_overrides/86/0 = Vector2(0, 0)
cache/0/81/0/kerning_overrides/66/0 = Vector2(0, 0)
cache/0/81/0/kerning_overrides/76/0 = Vector2(0, 0)
cache/0/81/0/kerning_overrides/14/0 = Vector2(0, 0)
cache/0/81/0/kerning_overrides/30/0 = Vector2(0, 0)
cache/0/91/0/ascent = 0.0
cache/0/91/0/descent = 0.0
cache/0/91/0/underline_position = 0.0
cache/0/91/0/underline_thickness = 0.0
cache/0/91/0/scale = 1.0
cache/0/91/0/kerning_overrides/16/0 = Vector2(0, 0)
cache/0/91/0/kerning_overrides/26/0 = Vector2(0, 0)
cache/0/91/0/kerning_overrides/31/0 = Vector2(0, 0)
cache/0/91/0/kerning_overrides/46/0 = Vector2(0, 0)
cache/0/91/0/kerning_overrides/56/0 = Vector2(0, 0)
cache/0/91/0/kerning_overrides/61/0 = Vector2(0, 0)
cache/0/91/0/kerning_overrides/71/0 = Vector2(0, 0)
cache/0/91/0/kerning_overrides/81/0 = Vector2(0, 0)
cache/0/91/0/kerning_overrides/91/0 = Vector2(0, 0)
cache/0/91/0/kerning_overrides/96/0 = Vector2(0, 0)
cache/0/91/0/kerning_overrides/106/0 = Vector2(0, 0)
cache/0/91/0/kerning_overrides/116/0 = Vector2(0, 0)
cache/0/91/0/kerning_overrides/126/0 = Vector2(0, 0)
cache/0/91/0/kerning_overrides/131/0 = Vector2(0, 0)
cache/0/91/0/kerning_overrides/136/0 = Vector2(0, 0)
cache/0/91/0/kerning_overrides/146/0 = Vector2(0, 0)
cache/0/91/0/kerning_overrides/156/0 = Vector2(0, 0)
cache/0/91/0/kerning_overrides/161/0 = Vector2(0, 0)
cache/0/91/0/kerning_overrides/166/0 = Vector2(0, 0)
cache/0/91/0/kerning_overrides/171/0 = Vector2(0, 0)
cache/0/91/0/kerning_overrides/176/0 = Vector2(0, 0)
cache/0/91/0/kerning_overrides/181/0 = Vector2(0, 0)
cache/0/91/0/kerning_overrides/141/0 = Vector2(0, 0)
cache/0/91/0/kerning_overrides/121/0 = Vector2(0, 0)
cache/0/91/0/kerning_overrides/111/0 = Vector2(0, 0)
cache/0/91/0/kerning_overrides/101/0 = Vector2(0, 0)
cache/0/91/0/kerning_overrides/86/0 = Vector2(0, 0)
cache/0/91/0/kerning_overrides/66/0 = Vector2(0, 0)
cache/0/91/0/kerning_overrides/76/0 = Vector2(0, 0)
cache/0/91/0/kerning_overrides/14/0 = Vector2(0, 0)
cache/0/91/0/kerning_overrides/30/0 = Vector2(0, 0)
cache/0/96/0/ascent = 0.0
cache/0/96/0/descent = 0.0
cache/0/96/0/underline_position = 0.0
cache/0/96/0/underline_thickness = 0.0
cache/0/96/0/scale = 1.0
cache/0/96/0/kerning_overrides/16/0 = Vector2(0, 0)
cache/0/96/0/kerning_overrides/26/0 = Vector2(0, 0)
cache/0/96/0/kerning_overrides/31/0 = Vector2(0, 0)
cache/0/96/0/kerning_overrides/46/0 = Vector2(0, 0)
cache/0/96/0/kerning_overrides/56/0 = Vector2(0, 0)
cache/0/96/0/kerning_overrides/61/0 = Vector2(0, 0)
cache/0/96/0/kerning_overrides/71/0 = Vector2(0, 0)
cache/0/96/0/kerning_overrides/81/0 = Vector2(0, 0)
cache/0/96/0/kerning_overrides/91/0 = Vector2(0, 0)
cache/0/96/0/kerning_overrides/96/0 = Vector2(0, 0)
cache/0/96/0/kerning_overrides/106/0 = Vector2(0, 0)
cache/0/96/0/kerning_overrides/116/0 = Vector2(0, 0)
cache/0/96/0/kerning_overrides/126/0 = Vector2(0, 0)
cache/0/96/0/kerning_overrides/131/0 = Vector2(0, 0)
cache/0/96/0/kerning_overrides/136/0 = Vector2(0, 0)
cache/0/96/0/kerning_overrides/146/0 = Vector2(0, 0)
cache/0/96/0/kerning_overrides/156/0 = Vector2(0, 0)
cache/0/96/0/kerning_overrides/161/0 = Vector2(0, 0)
cache/0/96/0/kerning_overrides/166/0 = Vector2(0, 0)
cache/0/96/0/kerning_overrides/171/0 = Vector2(0, 0)
cache/0/96/0/kerning_overrides/176/0 = Vector2(0, 0)
cache/0/96/0/kerning_overrides/181/0 = Vector2(0, 0)
cache/0/96/0/kerning_overrides/141/0 = Vector2(0, 0)
cache/0/96/0/kerning_overrides/121/0 = Vector2(0, 0)
cache/0/96/0/kerning_overrides/111/0 = Vector2(0, 0)
cache/0/96/0/kerning_overrides/101/0 = Vector2(0, 0)
cache/0/96/0/kerning_overrides/86/0 = Vector2(0, 0)
cache/0/96/0/kerning_overrides/66/0 = Vector2(0, 0)
cache/0/96/0/kerning_overrides/76/0 = Vector2(0, 0)
cache/0/96/0/kerning_overrides/14/0 = Vector2(0, 0)
cache/0/96/0/kerning_overrides/30/0 = Vector2(0, 0)
cache/0/106/0/ascent = 0.0
cache/0/106/0/descent = 0.0
cache/0/106/0/underline_position = 0.0
cache/0/106/0/underline_thickness = 0.0
cache/0/106/0/scale = 1.0
cache/0/106/0/kerning_overrides/16/0 = Vector2(0, 0)
cache/0/106/0/kerning_overrides/26/0 = Vector2(0, 0)
cache/0/106/0/kerning_overrides/31/0 = Vector2(0, 0)
cache/0/106/0/kerning_overrides/46/0 = Vector2(0, 0)
cache/0/106/0/kerning_overrides/56/0 = Vector2(0, 0)
cache/0/106/0/kerning_overrides/61/0 = Vector2(0, 0)
cache/0/106/0/kerning_overrides/71/0 = Vector2(0, 0)
cache/0/106/0/kerning_overrides/81/0 = Vector2(0, 0)
cache/0/106/0/kerning_overrides/91/0 = Vector2(0, 0)
cache/0/106/0/kerning_overrides/96/0 = Vector2(0, 0)
cache/0/106/0/kerning_overrides/106/0 = Vector2(0, 0)
cache/0/106/0/kerning_overrides/116/0 = Vector2(0, 0)
cache/0/106/0/kerning_overrides/126/0 = Vector2(0, 0)
cache/0/106/0/kerning_overrides/131/0 = Vector2(0, 0)
cache/0/106/0/kerning_overrides/136/0 = Vector2(0, 0)
cache/0/106/0/kerning_overrides/146/0 = Vector2(0, 0)
cache/0/106/0/kerning_overrides/156/0 = Vector2(0, 0)
cache/0/106/0/kerning_overrides/161/0 = Vector2(0, 0)
cache/0/106/0/kerning_overrides/166/0 = Vector2(0, 0)
cache/0/106/0/kerning_overrides/171/0 = Vector2(0, 0)
cache/0/106/0/kerning_overrides/176/0 = Vector2(0, 0)
cache/0/106/0/kerning_overrides/181/0 = Vector2(0, 0)
cache/0/106/0/kerning_overrides/141/0 = Vector2(0, 0)
cache/0/106/0/kerning_overrides/121/0 = Vector2(0, 0)
cache/0/106/0/kerning_overrides/111/0 = Vector2(0, 0)
cache/0/106/0/kerning_overrides/101/0 = Vector2(0, 0)
cache/0/106/0/kerning_overrides/86/0 = Vector2(0, 0)
cache/0/106/0/kerning_overrides/66/0 = Vector2(0, 0)
cache/0/106/0/kerning_overrides/76/0 = Vector2(0, 0)
cache/0/106/0/kerning_overrides/14/0 = Vector2(0, 0)
cache/0/106/0/kerning_overrides/30/0 = Vector2(0, 0)
cache/0/116/0/ascent = 0.0
cache/0/116/0/descent = 0.0
cache/0/116/0/underline_position = 0.0
cache/0/116/0/underline_thickness = 0.0
cache/0/116/0/scale = 1.0
cache/0/116/0/kerning_overrides/16/0 = Vector2(0, 0)
cache/0/116/0/kerning_overrides/26/0 = Vector2(0, 0)
cache/0/116/0/kerning_overrides/31/0 = Vector2(0, 0)
cache/0/116/0/kerning_overrides/46/0 = Vector2(0, 0)
cache/0/116/0/kerning_overrides/56/0 = Vector2(0, 0)
cache/0/116/0/kerning_overrides/61/0 = Vector2(0, 0)
cache/0/116/0/kerning_overrides/71/0 = Vector2(0, 0)
cache/0/116/0/kerning_overrides/81/0 = Vector2(0, 0)
cache/0/116/0/kerning_overrides/91/0 = Vector2(0, 0)
cache/0/116/0/kerning_overrides/96/0 = Vector2(0, 0)
cache/0/116/0/kerning_overrides/106/0 = Vector2(0, 0)
cache/0/116/0/kerning_overrides/116/0 = Vector2(0, 0)
cache/0/116/0/kerning_overrides/126/0 = Vector2(0, 0)
cache/0/116/0/kerning_overrides/131/0 = Vector2(0, 0)
cache/0/116/0/kerning_overrides/136/0 = Vector2(0, 0)
cache/0/116/0/kerning_overrides/146/0 = Vector2(0, 0)
cache/0/116/0/kerning_overrides/156/0 = Vector2(0, 0)
cache/0/116/0/kerning_overrides/161/0 = Vector2(0, 0)
cache/0/116/0/kerning_overrides/166/0 = Vector2(0, 0)
cache/0/116/0/kerning_overrides/171/0 = Vector2(0, 0)
cache/0/116/0/kerning_overrides/176/0 = Vector2(0, 0)
cache/0/116/0/kerning_overrides/181/0 = Vector2(0, 0)
cache/0/116/0/kerning_overrides/141/0 = Vector2(0, 0)
cache/0/116/0/kerning_overrides/121/0 = Vector2(0, 0)
cache/0/116/0/kerning_overrides/111/0 = Vector2(0, 0)
cache/0/116/0/kerning_overrides/101/0 = Vector2(0, 0)
cache/0/116/0/kerning_overrides/86/0 = Vector2(0, 0)
cache/0/116/0/kerning_overrides/66/0 = Vector2(0, 0)
cache/0/116/0/kerning_overrides/76/0 = Vector2(0, 0)
cache/0/116/0/kerning_overrides/14/0 = Vector2(0, 0)
cache/0/116/0/kerning_overrides/30/0 = Vector2(0, 0)
cache/0/126/0/ascent = 0.0
cache/0/126/0/descent = 0.0
cache/0/126/0/underline_position = 0.0
cache/0/126/0/underline_thickness = 0.0
cache/0/126/0/scale = 1.0
cache/0/126/0/kerning_overrides/16/0 = Vector2(0, 0)
cache/0/126/0/kerning_overrides/26/0 = Vector2(0, 0)
cache/0/126/0/kerning_overrides/31/0 = Vector2(0, 0)
cache/0/126/0/kerning_overrides/46/0 = Vector2(0, 0)
cache/0/126/0/kerning_overrides/56/0 = Vector2(0, 0)
cache/0/126/0/kerning_overrides/61/0 = Vector2(0, 0)
cache/0/126/0/kerning_overrides/71/0 = Vector2(0, 0)
cache/0/126/0/kerning_overrides/81/0 = Vector2(0, 0)
cache/0/126/0/kerning_overrides/91/0 = Vector2(0, 0)
cache/0/126/0/kerning_overrides/96/0 = Vector2(0, 0)
cache/0/126/0/kerning_overrides/106/0 = Vector2(0, 0)
cache/0/126/0/kerning_overrides/116/0 = Vector2(0, 0)
cache/0/126/0/kerning_overrides/126/0 = Vector2(0, 0)
cache/0/126/0/kerning_overrides/131/0 = Vector2(0, 0)
cache/0/126/0/kerning_overrides/136/0 = Vector2(0, 0)
cache/0/126/0/kerning_overrides/146/0 = Vector2(0, 0)
cache/0/126/0/kerning_overrides/156/0 = Vector2(0, 0)
cache/0/126/0/kerning_overrides/161/0 = Vector2(0, 0)
cache/0/126/0/kerning_overrides/166/0 = Vector2(0, 0)
cache/0/126/0/kerning_overrides/171/0 = Vector2(0, 0)
cache/0/126/0/kerning_overrides/176/0 = Vector2(0, 0)
cache/0/126/0/kerning_overrides/181/0 = Vector2(0, 0)
cache/0/126/0/kerning_overrides/141/0 = Vector2(0, 0)
cache/0/126/0/kerning_overrides/121/0 = Vector2(0, 0)
cache/0/126/0/kerning_overrides/111/0 = Vector2(0, 0)
cache/0/126/0/kerning_overrides/101/0 = Vector2(0, 0)
cache/0/126/0/kerning_overrides/86/0 = Vector2(0, 0)
cache/0/126/0/kerning_overrides/66/0 = Vector2(0, 0)
cache/0/126/0/kerning_overrides/76/0 = Vector2(0, 0)
cache/0/126/0/kerning_overrides/14/0 = Vector2(0, 0)
cache/0/126/0/kerning_overrides/30/0 = Vector2(0, 0)
cache/0/131/0/ascent = 0.0
cache/0/131/0/descent = 0.0
cache/0/131/0/underline_position = 0.0
cache/0/131/0/underline_thickness = 0.0
cache/0/131/0/scale = 1.0
cache/0/131/0/kerning_overrides/16/0 = Vector2(0, 0)
cache/0/131/0/kerning_overrides/26/0 = Vector2(0, 0)
cache/0/131/0/kerning_overrides/31/0 = Vector2(0, 0)
cache/0/131/0/kerning_overrides/46/0 = Vector2(0, 0)
cache/0/131/0/kerning_overrides/56/0 = Vector2(0, 0)
cache/0/131/0/kerning_overrides/61/0 = Vector2(0, 0)
cache/0/131/0/kerning_overrides/71/0 = Vector2(0, 0)
cache/0/131/0/kerning_overrides/81/0 = Vector2(0, 0)
cache/0/131/0/kerning_overrides/91/0 = Vector2(0, 0)
cache/0/131/0/kerning_overrides/96/0 = Vector2(0, 0)
cache/0/131/0/kerning_overrides/106/0 = Vector2(0, 0)
cache/0/131/0/kerning_overrides/116/0 = Vector2(0, 0)
cache/0/131/0/kerning_overrides/126/0 = Vector2(0, 0)
cache/0/131/0/kerning_overrides/131/0 = Vector2(0, 0)
cache/0/131/0/kerning_overrides/136/0 = Vector2(0, 0)
cache/0/131/0/kerning_overrides/146/0 = Vector2(0, 0)
cache/0/131/0/kerning_overrides/156/0 = Vector2(0, 0)
cache/0/131/0/kerning_overrides/161/0 = Vector2(0, 0)
cache/0/131/0/kerning_overrides/166/0 = Vector2(0, 0)
cache/0/131/0/kerning_overrides/171/0 = Vector2(0, 0)
cache/0/131/0/kerning_overrides/176/0 = Vector2(0, 0)
cache/0/131/0/kerning_overrides/181/0 = Vector2(0, 0)
cache/0/131/0/kerning_overrides/141/0 = Vector2(0, 0)
cache/0/131/0/kerning_overrides/121/0 = Vector2(0, 0)
cache/0/131/0/kerning_overrides/111/0 = Vector2(0, 0)
cache/0/131/0/kerning_overrides/101/0 = Vector2(0, 0)
cache/0/131/0/kerning_overrides/86/0 = Vector2(0, 0)
cache/0/131/0/kerning_overrides/66/0 = Vector2(0, 0)
cache/0/131/0/kerning_overrides/76/0 = Vector2(0, 0)
cache/0/131/0/kerning_overrides/14/0 = Vector2(0, 0)
cache/0/131/0/kerning_overrides/30/0 = Vector2(0, 0)
cache/0/136/0/ascent = 0.0
cache/0/136/0/descent = 0.0
cache/0/136/0/underline_position = 0.0
cache/0/136/0/underline_thickness = 0.0
cache/0/136/0/scale = 1.0
cache/0/136/0/kerning_overrides/16/0 = Vector2(0, 0)
cache/0/136/0/kerning_overrides/26/0 = Vector2(0, 0)
cache/0/136/0/kerning_overrides/31/0 = Vector2(0, 0)
cache/0/136/0/kerning_overrides/46/0 = Vector2(0, 0)
cache/0/136/0/kerning_overrides/56/0 = Vector2(0, 0)
cache/0/136/0/kerning_overrides/61/0 = Vector2(0, 0)
cache/0/136/0/kerning_overrides/71/0 = Vector2(0, 0)
cache/0/136/0/kerning_overrides/81/0 = Vector2(0, 0)
cache/0/136/0/kerning_overrides/91/0 = Vector2(0, 0)
cache/0/136/0/kerning_overrides/96/0 = Vector2(0, 0)
cache/0/136/0/kerning_overrides/106/0 = Vector2(0, 0)
cache/0/136/0/kerning_overrides/116/0 = Vector2(0, 0)
cache/0/136/0/kerning_overrides/126/0 = Vector2(0, 0)
cache/0/136/0/kerning_overrides/131/0 = Vector2(0, 0)
cache/0/136/0/kerning_overrides/136/0 = Vector2(0, 0)
cache/0/136/0/kerning_overrides/146/0 = Vector2(0, 0)
cache/0/136/0/kerning_overrides/156/0 = Vector2(0, 0)
cache/0/136/0/kerning_overrides/161/0 = Vector2(0, 0)
cache/0/136/0/kerning_overrides/166/0 = Vector2(0, 0)
cache/0/136/0/kerning_overrides/171/0 = Vector2(0, 0)
cache/0/136/0/kerning_overrides/176/0 = Vector2(0, 0)
cache/0/136/0/kerning_overrides/181/0 = Vector2(0, 0)
cache/0/136/0/kerning_overrides/141/0 = Vector2(0, 0)
cache/0/136/0/kerning_overrides/121/0 = Vector2(0, 0)
cache/0/136/0/kerning_overrides/111/0 = Vector2(0, 0)
cache/0/136/0/kerning_overrides/101/0 = Vector2(0, 0)
cache/0/136/0/kerning_overrides/86/0 = Vector2(0, 0)
cache/0/136/0/kerning_overrides/66/0 = Vector2(0, 0)
cache/0/136/0/kerning_overrides/76/0 = Vector2(0, 0)
cache/0/136/0/kerning_overrides/14/0 = Vector2(0, 0)
cache/0/136/0/kerning_overrides/30/0 = Vector2(0, 0)
cache/0/146/0/ascent = 0.0
cache/0/146/0/descent = 0.0
cache/0/146/0/underline_position = 0.0
cache/0/146/0/underline_thickness = 0.0
cache/0/146/0/scale = 1.0
cache/0/146/0/kerning_overrides/16/0 = Vector2(0, 0)
cache/0/146/0/kerning_overrides/26/0 = Vector2(0, 0)
cache/0/146/0/kerning_overrides/31/0 = Vector2(0, 0)
cache/0/146/0/kerning_overrides/46/0 = Vector2(0, 0)
cache/0/146/0/kerning_overrides/56/0 = Vector2(0, 0)
cache/0/146/0/kerning_overrides/61/0 = Vector2(0, 0)
cache/0/146/0/kerning_overrides/71/0 = Vector2(0, 0)
cache/0/146/0/kerning_overrides/81/0 = Vector2(0, 0)
cache/0/146/0/kerning_overrides/91/0 = Vector2(0, 0)
cache/0/146/0/kerning_overrides/96/0 = Vector2(0, 0)
cache/0/146/0/kerning_overrides/106/0 = Vector2(0, 0)
cache/0/146/0/kerning_overrides/116/0 = Vector2(0, 0)
cache/0/146/0/kerning_overrides/126/0 = Vector2(0, 0)
cache/0/146/0/kerning_overrides/131/0 = Vector2(0, 0)
cache/0/146/0/kerning_overrides/136/0 = Vector2(0, 0)
cache/0/146/0/kerning_overrides/146/0 = Vector2(0, 0)
cache/0/146/0/kerning_overrides/156/0 = Vector2(0, 0)
cache/0/146/0/kerning_overrides/161/0 = Vector2(0, 0)
cache/0/146/0/kerning_overrides/166/0 = Vector2(0, 0)
cache/0/146/0/kerning_overrides/171/0 = Vector2(0, 0)
cache/0/146/0/kerning_overrides/176/0 = Vector2(0, 0)
cache/0/146/0/kerning_overrides/181/0 = Vector2(0, 0)
cache/0/146/0/kerning_overrides/141/0 = Vector2(0, 0)
cache/0/146/0/kerning_overrides/121/0 = Vector2(0, 0)
cache/0/146/0/kerning_overrides/111/0 = Vector2(0, 0)
cache/0/146/0/kerning_overrides/101/0 = Vector2(0, 0)
cache/0/146/0/kerning_overrides/86/0 = Vector2(0, 0)
cache/0/146/0/kerning_overrides/66/0 = Vector2(0, 0)
cache/0/146/0/kerning_overrides/76/0 = Vector2(0, 0)
cache/0/146/0/kerning_overrides/14/0 = Vector2(0, 0)
cache/0/146/0/kerning_overrides/30/0 = Vector2(0, 0)
cache/0/156/0/ascent = 0.0
cache/0/156/0/descent = 0.0
cache/0/156/0/underline_position = 0.0
cache/0/156/0/underline_thickness = 0.0
cache/0/156/0/scale = 1.0
cache/0/156/0/kerning_overrides/16/0 = Vector2(0, 0)
cache/0/156/0/kerning_overrides/26/0 = Vector2(0, 0)
cache/0/156/0/kerning_overrides/31/0 = Vector2(0, 0)
cache/0/156/0/kerning_overrides/46/0 = Vector2(0, 0)
cache/0/156/0/kerning_overrides/56/0 = Vector2(0, 0)
cache/0/156/0/kerning_overrides/61/0 = Vector2(0, 0)
cache/0/156/0/kerning_overrides/71/0 = Vector2(0, 0)
cache/0/156/0/kerning_overrides/81/0 = Vector2(0, 0)
cache/0/156/0/kerning_overrides/91/0 = Vector2(0, 0)
cache/0/156/0/kerning_overrides/96/0 = Vector2(0, 0)
cache/0/156/0/kerning_overrides/106/0 = Vector2(0, 0)
cache/0/156/0/kerning_overrides/116/0 = Vector2(0, 0)
cache/0/156/0/kerning_overrides/126/0 = Vector2(0, 0)
cache/0/156/0/kerning_overrides/131/0 = Vector2(0, 0)
cache/0/156/0/kerning_overrides/136/0 = Vector2(0, 0)
cache/0/156/0/kerning_overrides/146/0 = Vector2(0, 0)
cache/0/156/0/kerning_overrides/156/0 = Vector2(0, 0)
cache/0/156/0/kerning_overrides/161/0 = Vector2(0, 0)
cache/0/156/0/kerning_overrides/166/0 = Vector2(0, 0)
cache/0/156/0/kerning_overrides/171/0 = Vector2(0, 0)
cache/0/156/0/kerning_overrides/176/0 = Vector2(0, 0)
cache/0/156/0/kerning_overrides/181/0 = Vector2(0, 0)
cache/0/156/0/kerning_overrides/141/0 = Vector2(0, 0)
cache/0/156/0/kerning_overrides/121/0 = Vector2(0, 0)
cache/0/156/0/kerning_overrides/111/0 = Vector2(0, 0)
cache/0/156/0/kerning_overrides/101/0 = Vector2(0, 0)
cache/0/156/0/kerning_overrides/86/0 = Vector2(0, 0)
cache/0/156/0/kerning_overrides/66/0 = Vector2(0, 0)
cache/0/156/0/kerning_overrides/76/0 = Vector2(0, 0)
cache/0/156/0/kerning_overrides/14/0 = Vector2(0, 0)
cache/0/156/0/kerning_overrides/30/0 = Vector2(0, 0)
cache/0/161/0/ascent = 0.0
cache/0/161/0/descent = 0.0
cache/0/161/0/underline_position = 0.0
cache/0/161/0/underline_thickness = 0.0
cache/0/161/0/scale = 1.0
cache/0/161/0/kerning_overrides/16/0 = Vector2(0, 0)
cache/0/161/0/kerning_overrides/26/0 = Vector2(0, 0)
cache/0/161/0/kerning_overrides/31/0 = Vector2(0, 0)
cache/0/161/0/kerning_overrides/46/0 = Vector2(0, 0)
cache/0/161/0/kerning_overrides/56/0 = Vector2(0, 0)
cache/0/161/0/kerning_overrides/61/0 = Vector2(0, 0)
cache/0/161/0/kerning_overrides/71/0 = Vector2(0, 0)
cache/0/161/0/kerning_overrides/81/0 = Vector2(0, 0)
cache/0/161/0/kerning_overrides/91/0 = Vector2(0, 0)
cache/0/161/0/kerning_overrides/96/0 = Vector2(0, 0)
cache/0/161/0/kerning_overrides/106/0 = Vector2(0, 0)
cache/0/161/0/kerning_overrides/116/0 = Vector2(0, 0)
cache/0/161/0/kerning_overrides/126/0 = Vector2(0, 0)
cache/0/161/0/kerning_overrides/131/0 = Vector2(0, 0)
cache/0/161/0/kerning_overrides/136/0 = Vector2(0, 0)
cache/0/161/0/kerning_overrides/146/0 = Vector2(0, 0)
cache/0/161/0/kerning_overrides/156/0 = Vector2(0, 0)
cache/0/161/0/kerning_overrides/161/0 = Vector2(0, 0)
cache/0/161/0/kerning_overrides/166/0 = Vector2(0, 0)
cache/0/161/0/kerning_overrides/171/0 = Vector2(0, 0)
cache/0/161/0/kerning_overrides/176/0 = Vector2(0, 0)
cache/0/161/0/kerning_overrides/181/0 = Vector2(0, 0)
cache/0/161/0/kerning_overrides/141/0 = Vector2(0, 0)
cache/0/161/0/kerning_overrides/121/0 = Vector2(0, 0)
cache/0/161/0/kerning_overrides/111/0 = Vector2(0, 0)
cache/0/161/0/kerning_overrides/101/0 = Vector2(0, 0)
cache/0/161/0/kerning_overrides/86/0 = Vector2(0, 0)
cache/0/161/0/kerning_overrides/66/0 = Vector2(0, 0)
cache/0/161/0/kerning_overrides/76/0 = Vector2(0, 0)
cache/0/161/0/kerning_overrides/14/0 = Vector2(0, 0)
cache/0/161/0/kerning_overrides/30/0 = Vector2(0, 0)
cache/0/166/0/ascent = 0.0
cache/0/166/0/descent = 0.0
cache/0/166/0/underline_position = 0.0
cache/0/166/0/underline_thickness = 0.0
cache/0/166/0/scale = 1.0
cache/0/166/0/kerning_overrides/16/0 = Vector2(0, 0)
cache/0/166/0/kerning_overrides/26/0 = Vector2(0, 0)
cache/0/166/0/kerning_overrides/31/0 = Vector2(0, 0)
cache/0/166/0/kerning_overrides/46/0 = Vector2(0, 0)
cache/0/166/0/kerning_overrides/56/0 = Vector2(0, 0)
cache/0/166/0/kerning_overrides/61/0 = Vector2(0, 0)
cache/0/166/0/kerning_overrides/71/0 = Vector2(0, 0)
cache/0/166/0/kerning_overrides/81/0 = Vector2(0, 0)
cache/0/166/0/kerning_overrides/91/0 = Vector2(0, 0)
cache/0/166/0/kerning_overrides/96/0 = Vector2(0, 0)
cache/0/166/0/kerning_overrides/106/0 = Vector2(0, 0)
cache/0/166/0/kerning_overrides/116/0 = Vector2(0, 0)
cache/0/166/0/kerning_overrides/126/0 = Vector2(0, 0)
cache/0/166/0/kerning_overrides/131/0 = Vector2(0, 0)
cache/0/166/0/kerning_overrides/136/0 = Vector2(0, 0)
cache/0/166/0/kerning_overrides/146/0 = Vector2(0, 0)
cache/0/166/0/kerning_overrides/156/0 = Vector2(0, 0)
cache/0/166/0/kerning_overrides/161/0 = Vector2(0, 0)
cache/0/166/0/kerning_overrides/166/0 = Vector2(0, 0)
cache/0/166/0/kerning_overrides/171/0 = Vector2(0, 0)
cache/0/166/0/kerning_overrides/176/0 = Vector2(0, 0)
cache/0/166/0/kerning_overrides/181/0 = Vector2(0, 0)
cache/0/166/0/kerning_overrides/141/0 = Vector2(0, 0)
cache/0/166/0/kerning_overrides/121/0 = Vector2(0, 0)
cache/0/166/0/kerning_overrides/111/0 = Vector2(0, 0)
cache/0/166/0/kerning_overrides/101/0 = Vector2(0, 0)
cache/0/166/0/kerning_overrides/86/0 = Vector2(0, 0)
cache/0/166/0/kerning_overrides/66/0 = Vector2(0, 0)
cache/0/166/0/kerning_overrides/76/0 = Vector2(0, 0)
cache/0/166/0/kerning_overrides/14/0 = Vector2(0, 0)
cache/0/166/0/kerning_overrides/30/0 = Vector2(0, 0)
cache/0/171/0/ascent = 0.0
cache/0/171/0/descent = 0.0
cache/0/171/0/underline_position = 0.0
cache/0/171/0/underline_thickness = 0.0
cache/0/171/0/scale = 1.0
cache/0/171/0/kerning_overrides/16/0 = Vector2(0, 0)
cache/0/171/0/kerning_overrides/26/0 = Vector2(0, 0)
cache/0/171/0/kerning_overrides/31/0 = Vector2(0, 0)
cache/0/171/0/kerning_overrides/46/0 = Vector2(0, 0)
cache/0/171/0/kerning_overrides/56/0 = Vector2(0, 0)
cache/0/171/0/kerning_overrides/61/0 = Vector2(0, 0)
cache/0/171/0/kerning_overrides/71/0 = Vector2(0, 0)
cache/0/171/0/kerning_overrides/81/0 = Vector2(0, 0)
cache/0/171/0/kerning_overrides/91/0 = Vector2(0, 0)
cache/0/171/0/kerning_overrides/96/0 = Vector2(0, 0)
cache/0/171/0/kerning_overrides/106/0 = Vector2(0, 0)
cache/0/171/0/kerning_overrides/116/0 = Vector2(0, 0)
cache/0/171/0/kerning_overrides/126/0 = Vector2(0, 0)
cache/0/171/0/kerning_overrides/131/0 = Vector2(0, 0)
cache/0/171/0/kerning_overrides/136/0 = Vector2(0, 0)
cache/0/171/0/kerning_overrides/146/0 = Vector2(0, 0)
cache/0/171/0/kerning_overrides/156/0 = Vector2(0, 0)
cache/0/171/0/kerning_overrides/161/0 = Vector2(0, 0)
cache/0/171/0/kerning_overrides/166/0 = Vector2(0, 0)
cache/0/171/0/kerning_overrides/171/0 = Vector2(0, 0)
cache/0/171/0/kerning_overrides/176/0 = Vector2(0, 0)
cache/0/171/0/kerning_overrides/181/0 = Vector2(0, 0)
cache/0/171/0/kerning_overrides/141/0 = Vector2(0, 0)
cache/0/171/0/kerning_overrides/121/0 = Vector2(0, 0)
cache/0/171/0/kerning_overrides/111/0 = Vector2(0, 0)
cache/0/171/0/kerning_overrides/101/0 = Vector2(0, 0)
cache/0/171/0/kerning_overrides/86/0 = Vector2(0, 0)
cache/0/171/0/kerning_overrides/66/0 = Vector2(0, 0)
cache/0/171/0/kerning_overrides/76/0 = Vector2(0, 0)
cache/0/171/0/kerning_overrides/14/0 = Vector2(0, 0)
cache/0/171/0/kerning_overrides/30/0 = Vector2(0, 0)
cache/0/176/0/ascent = 0.0
cache/0/176/0/descent = 0.0
cache/0/176/0/underline_position = 0.0
cache/0/176/0/underline_thickness = 0.0
cache/0/176/0/scale = 1.0
cache/0/176/0/kerning_overrides/16/0 = Vector2(0, 0)
cache/0/176/0/kerning_overrides/26/0 = Vector2(0, 0)
cache/0/176/0/kerning_overrides/31/0 = Vector2(0, 0)
cache/0/176/0/kerning_overrides/46/0 = Vector2(0, 0)
cache/0/176/0/kerning_overrides/56/0 = Vector2(0, 0)
cache/0/176/0/kerning_overrides/61/0 = Vector2(0, 0)
cache/0/176/0/kerning_overrides/71/0 = Vector2(0, 0)
cache/0/176/0/kerning_overrides/81/0 = Vector2(0, 0)
cache/0/176/0/kerning_overrides/91/0 = Vector2(0, 0)
cache/0/176/0/kerning_overrides/96/0 = Vector2(0, 0)
cache/0/176/0/kerning_overrides/106/0 = Vector2(0, 0)
cache/0/176/0/kerning_overrides/116/0 = Vector2(0, 0)
cache/0/176/0/kerning_overrides/126/0 = Vector2(0, 0)
cache/0/176/0/kerning_overrides/131/0 = Vector2(0, 0)
cache/0/176/0/kerning_overrides/136/0 = Vector2(0, 0)
cache/0/176/0/kerning_overrides/146/0 = Vector2(0, 0)
cache/0/176/0/kerning_overrides/156/0 = Vector2(0, 0)
cache/0/176/0/kerning_overrides/161/0 = Vector2(0, 0)
cache/0/176/0/kerning_overrides/166/0 = Vector2(0, 0)
cache/0/176/0/kerning_overrides/171/0 = Vector2(0, 0)
cache/0/176/0/kerning_overrides/176/0 = Vector2(0, 0)
cache/0/176/0/kerning_overrides/181/0 = Vector2(0, 0)
cache/0/176/0/kerning_overrides/141/0 = Vector2(0, 0)
cache/0/176/0/kerning_overrides/121/0 = Vector2(0, 0)
cache/0/176/0/kerning_overrides/111/0 = Vector2(0, 0)
cache/0/176/0/kerning_overrides/101/0 = Vector2(0, 0)
cache/0/176/0/kerning_overrides/86/0 = Vector2(0, 0)
cache/0/176/0/kerning_overrides/66/0 = Vector2(0, 0)
cache/0/176/0/kerning_overrides/76/0 = Vector2(0, 0)
cache/0/176/0/kerning_overrides/14/0 = Vector2(0, 0)
cache/0/176/0/kerning_overrides/30/0 = Vector2(0, 0)
cache/0/181/0/ascent = 0.0
cache/0/181/0/descent = 0.0
cache/0/181/0/underline_position = 0.0
cache/0/181/0/underline_thickness = 0.0
cache/0/181/0/scale = 1.0
cache/0/181/0/kerning_overrides/16/0 = Vector2(0, 0)
cache/0/181/0/kerning_overrides/26/0 = Vector2(0, 0)
cache/0/181/0/kerning_overrides/31/0 = Vector2(0, 0)
cache/0/181/0/kerning_overrides/46/0 = Vector2(0, 0)
cache/0/181/0/kerning_overrides/56/0 = Vector2(0, 0)
cache/0/181/0/kerning_overrides/61/0 = Vector2(0, 0)
cache/0/181/0/kerning_overrides/71/0 = Vector2(0, 0)
cache/0/181/0/kerning_overrides/81/0 = Vector2(0, 0)
cache/0/181/0/kerning_overrides/91/0 = Vector2(0, 0)
cache/0/181/0/kerning_overrides/96/0 = Vector2(0, 0)
cache/0/181/0/kerning_overrides/106/0 = Vector2(0, 0)
cache/0/181/0/kerning_overrides/116/0 = Vector2(0, 0)
cache/0/181/0/kerning_overrides/126/0 = Vector2(0, 0)
cache/0/181/0/kerning_overrides/131/0 = Vector2(0, 0)
cache/0/181/0/kerning_overrides/136/0 = Vector2(0, 0)
cache/0/181/0/kerning_overrides/146/0 = Vector2(0, 0)
cache/0/181/0/kerning_overrides/156/0 = Vector2(0, 0)
cache/0/181/0/kerning_overrides/161/0 = Vector2(0, 0)
cache/0/181/0/kerning_overrides/166/0 = Vector2(0, 0)
cache/0/181/0/kerning_overrides/171/0 = Vector2(0, 0)
cache/0/181/0/kerning_overrides/176/0 = Vector2(0, 0)
cache/0/181/0/kerning_overrides/181/0 = Vector2(0, 0)
cache/0/181/0/kerning_overrides/141/0 = Vector2(0, 0)
cache/0/181/0/kerning_overrides/121/0 = Vector2(0, 0)
cache/0/181/0/kerning_overrides/111/0 = Vector2(0, 0)
cache/0/181/0/kerning_overrides/101/0 = Vector2(0, 0)
cache/0/181/0/kerning_overrides/86/0 = Vector2(0, 0)
cache/0/181/0/kerning_overrides/66/0 = Vector2(0, 0)
cache/0/181/0/kerning_overrides/76/0 = Vector2(0, 0)
cache/0/181/0/kerning_overrides/14/0 = Vector2(0, 0)
cache/0/181/0/kerning_overrides/30/0 = Vector2(0, 0)
cache/0/141/0/ascent = 0.0
cache/0/141/0/descent = 0.0
cache/0/141/0/underline_position = 0.0
cache/0/141/0/underline_thickness = 0.0
cache/0/141/0/scale = 1.0
cache/0/141/0/kerning_overrides/16/0 = Vector2(0, 0)
cache/0/141/0/kerning_overrides/26/0 = Vector2(0, 0)
cache/0/141/0/kerning_overrides/31/0 = Vector2(0, 0)
cache/0/141/0/kerning_overrides/46/0 = Vector2(0, 0)
cache/0/141/0/kerning_overrides/56/0 = Vector2(0, 0)
cache/0/141/0/kerning_overrides/61/0 = Vector2(0, 0)
cache/0/141/0/kerning_overrides/71/0 = Vector2(0, 0)
cache/0/141/0/kerning_overrides/81/0 = Vector2(0, 0)
cache/0/141/0/kerning_overrides/91/0 = Vector2(0, 0)
cache/0/141/0/kerning_overrides/96/0 = Vector2(0, 0)
cache/0/141/0/kerning_overrides/106/0 = Vector2(0, 0)
cache/0/141/0/kerning_overrides/116/0 = Vector2(0, 0)
cache/0/141/0/kerning_overrides/126/0 = Vector2(0, 0)
cache/0/141/0/kerning_overrides/131/0 = Vector2(0, 0)
cache/0/141/0/kerning_overrides/136/0 = Vector2(0, 0)
cache/0/141/0/kerning_overrides/146/0 = Vector2(0, 0)
cache/0/141/0/kerning_overrides/156/0 = Vector2(0, 0)
cache/0/141/0/kerning_overrides/161/0 = Vector2(0, 0)
cache/0/141/0/kerning_overrides/166/0 = Vector2(0, 0)
cache/0/141/0/kerning_overrides/171/0 = Vector2(0, 0)
cache/0/141/0/kerning_overrides/176/0 = Vector2(0, 0)
cache/0/141/0/kerning_overrides/181/0 = Vector2(0, 0)
cache/0/141/0/kerning_overrides/141/0 = Vector2(0, 0)
cache/0/141/0/kerning_overrides/121/0 = Vector2(0, 0)
cache/0/141/0/kerning_overrides/111/0 = Vector2(0, 0)
cache/0/141/0/kerning_overrides/101/0 = Vector2(0, 0)
cache/0/141/0/kerning_overrides/86/0 = Vector2(0, 0)
cache/0/141/0/kerning_overrides/66/0 = Vector2(0, 0)
cache/0/141/0/kerning_overrides/76/0 = Vector2(0, 0)
cache/0/141/0/kerning_overrides/14/0 = Vector2(0, 0)
cache/0/141/0/kerning_overrides/30/0 = Vector2(0, 0)
cache/0/121/0/ascent = 0.0
cache/0/121/0/descent = 0.0
cache/0/121/0/underline_position = 0.0
cache/0/121/0/underline_thickness = 0.0
cache/0/121/0/scale = 1.0
cache/0/121/0/kerning_overrides/16/0 = Vector2(0, 0)
cache/0/121/0/kerning_overrides/26/0 = Vector2(0, 0)
cache/0/121/0/kerning_overrides/31/0 = Vector2(0, 0)
cache/0/121/0/kerning_overrides/46/0 = Vector2(0, 0)
cache/0/121/0/kerning_overrides/56/0 = Vector2(0, 0)
cache/0/121/0/kerning_overrides/61/0 = Vector2(0, 0)
cache/0/121/0/kerning_overrides/71/0 = Vector2(0, 0)
cache/0/121/0/kerning_overrides/81/0 = Vector2(0, 0)
cache/0/121/0/kerning_overrides/91/0 = Vector2(0, 0)
cache/0/121/0/kerning_overrides/96/0 = Vector2(0, 0)
cache/0/121/0/kerning_overrides/106/0 = Vector2(0, 0)
cache/0/121/0/kerning_overrides/116/0 = Vector2(0, 0)
cache/0/121/0/kerning_overrides/126/0 = Vector2(0, 0)
cache/0/121/0/kerning_overrides/131/0 = Vector2(0, 0)
cache/0/121/0/kerning_overrides/136/0 = Vector2(0, 0)
cache/0/121/0/kerning_overrides/146/0 = Vector2(0, 0)
cache/0/121/0/kerning_overrides/156/0 = Vector2(0, 0)
cache/0/121/0/kerning_overrides/161/0 = Vector2(0, 0)
cache/0/121/0/kerning_overrides/166/0 = Vector2(0, 0)
cache/0/121/0/kerning_overrides/171/0 = Vector2(0, 0)
cache/0/121/0/kerning_overrides/176/0 = Vector2(0, 0)
cache/0/121/0/kerning_overrides/181/0 = Vector2(0, 0)
cache/0/121/0/kerning_overrides/141/0 = Vector2(0, 0)
cache/0/121/0/kerning_overrides/121/0 = Vector2(0, 0)
cache/0/121/0/kerning_overrides/111/0 = Vector2(0, 0)
cache/0/121/0/kerning_overrides/101/0 = Vector2(0, 0)
cache/0/121/0/kerning_overrides/86/0 = Vector2(0, 0)
cache/0/121/0/kerning_overrides/66/0 = Vector2(0, 0)
cache/0/121/0/kerning_overrides/76/0 = Vector2(0, 0)
cache/0/121/0/kerning_overrides/14/0 = Vector2(0, 0)
cache/0/121/0/kerning_overrides/30/0 = Vector2(0, 0)
cache/0/111/0/ascent = 0.0
cache/0/111/0/descent = 0.0
cache/0/111/0/underline_position = 0.0
cache/0/111/0/underline_thickness = 0.0
cache/0/111/0/scale = 1.0
cache/0/111/0/kerning_overrides/16/0 = Vector2(0, 0)
cache/0/111/0/kerning_overrides/26/0 = Vector2(0, 0)
cache/0/111/0/kerning_overrides/31/0 = Vector2(0, 0)
cache/0/111/0/kerning_overrides/46/0 = Vector2(0, 0)
cache/0/111/0/kerning_overrides/56/0 = Vector2(0, 0)
cache/0/111/0/kerning_overrides/61/0 = Vector2(0, 0)
cache/0/111/0/kerning_overrides/71/0 = Vector2(0, 0)
cache/0/111/0/kerning_overrides/81/0 = Vector2(0, 0)
cache/0/111/0/kerning_overrides/91/0 = Vector2(0, 0)
cache/0/111/0/kerning_overrides/96/0 = Vector2(0, 0)
cache/0/111/0/kerning_overrides/106/0 = Vector2(0, 0)
cache/0/111/0/kerning_overrides/116/0 = Vector2(0, 0)
cache/0/111/0/kerning_overrides/126/0 = Vector2(0, 0)
cache/0/111/0/kerning_overrides/131/0 = Vector2(0, 0)
cache/0/111/0/kerning_overrides/136/0 = Vector2(0, 0)
cache/0/111/0/kerning_overrides/146/0 = Vector2(0, 0)
cache/0/111/0/kerning_overrides/156/0 = Vector2(0, 0)
cache/0/111/0/kerning_overrides/161/0 = Vector2(0, 0)
cache/0/111/0/kerning_overrides/166/0 = Vector2(0, 0)
cache/0/111/0/kerning_overrides/171/0 = Vector2(0, 0)
cache/0/111/0/kerning_overrides/176/0 = Vector2(0, 0)
cache/0/111/0/kerning_overrides/181/0 = Vector2(0, 0)
cache/0/111/0/kerning_overrides/141/0 = Vector2(0, 0)
cache/0/111/0/kerning_overrides/121/0 = Vector2(0, 0)
cache/0/111/0/kerning_overrides/111/0 = Vector2(0, 0)
cache/0/111/0/kerning_overrides/101/0 = Vector2(0, 0)
cache/0/111/0/kerning_overrides/86/0 = Vector2(0, 0)
cache/0/111/0/kerning_overrides/66/0 = Vector2(0, 0)
cache/0/111/0/kerning_overrides/76/0 = Vector2(0, 0)
cache/0/111/0/kerning_overrides/14/0 = Vector2(0, 0)
cache/0/111/0/kerning_overrides/30/0 = Vector2(0, 0)
cache/0/101/0/ascent = 0.0
cache/0/101/0/descent = 0.0
cache/0/101/0/underline_position = 0.0
cache/0/101/0/underline_thickness = 0.0
cache/0/101/0/scale = 1.0
cache/0/101/0/kerning_overrides/16/0 = Vector2(0, 0)
cache/0/101/0/kerning_overrides/26/0 = Vector2(0, 0)
cache/0/101/0/kerning_overrides/31/0 = Vector2(0, 0)
cache/0/101/0/kerning_overrides/46/0 = Vector2(0, 0)
cache/0/101/0/kerning_overrides/56/0 = Vector2(0, 0)
cache/0/101/0/kerning_overrides/61/0 = Vector2(0, 0)
cache/0/101/0/kerning_overrides/71/0 = Vector2(0, 0)
cache/0/101/0/kerning_overrides/81/0 = Vector2(0, 0)
cache/0/101/0/kerning_overrides/91/0 = Vector2(0, 0)
cache/0/101/0/kerning_overrides/96/0 = Vector2(0, 0)
cache/0/101/0/kerning_overrides/106/0 = Vector2(0, 0)
cache/0/101/0/kerning_overrides/116/0 = Vector2(0, 0)
cache/0/101/0/kerning_overrides/126/0 = Vector2(0, 0)
cache/0/101/0/kerning_overrides/131/0 = Vector2(0, 0)
cache/0/101/0/kerning_overrides/136/0 = Vector2(0, 0)
cache/0/101/0/kerning_overrides/146/0 = Vector2(0, 0)
cache/0/101/0/kerning_overrides/156/0 = Vector2(0, 0)
cache/0/101/0/kerning_overrides/161/0 = Vector2(0, 0)
cache/0/101/0/kerning_overrides/166/0 = Vector2(0, 0)
cache/0/101/0/kerning_overrides/171/0 = Vector2(0, 0)
cache/0/101/0/kerning_overrides/176/0 = Vector2(0, 0)
cache/0/101/0/kerning_overrides/181/0 = Vector2(0, 0)
cache/0/101/0/kerning_overrides/141/0 = Vector2(0, 0)
cache/0/101/0/kerning_overrides/121/0 = Vector2(0, 0)
cache/0/101/0/kerning_overrides/111/0 = Vector2(0, 0)
cache/0/101/0/kerning_overrides/101/0 = Vector2(0, 0)
cache/0/101/0/kerning_overrides/86/0 = Vector2(0, 0)
cache/0/101/0/kerning_overrides/66/0 = Vector2(0, 0)
cache/0/101/0/kerning_overrides/76/0 = Vector2(0, 0)
cache/0/101/0/kerning_overrides/14/0 = Vector2(0, 0)
cache/0/101/0/kerning_overrides/30/0 = Vector2(0, 0)
cache/0/86/0/ascent = 0.0
cache/0/86/0/descent = 0.0
cache/0/86/0/underline_position = 0.0
cache/0/86/0/underline_thickness = 0.0
cache/0/86/0/scale = 1.0
cache/0/86/0/kerning_overrides/16/0 = Vector2(0, 0)
cache/0/86/0/kerning_overrides/26/0 = Vector2(0, 0)
cache/0/86/0/kerning_overrides/31/0 = Vector2(0, 0)
cache/0/86/0/kerning_overrides/46/0 = Vector2(0, 0)
cache/0/86/0/kerning_overrides/56/0 = Vector2(0, 0)
cache/0/86/0/kerning_overrides/61/0 = Vector2(0, 0)
cache/0/86/0/kerning_overrides/71/0 = Vector2(0, 0)
cache/0/86/0/kerning_overrides/81/0 = Vector2(0, 0)
cache/0/86/0/kerning_overrides/91/0 = Vector2(0, 0)
cache/0/86/0/kerning_overrides/96/0 = Vector2(0, 0)
cache/0/86/0/kerning_overrides/106/0 = Vector2(0, 0)
cache/0/86/0/kerning_overrides/116/0 = Vector2(0, 0)
cache/0/86/0/kerning_overrides/126/0 = Vector2(0, 0)
cache/0/86/0/kerning_overrides/131/0 = Vector2(0, 0)
cache/0/86/0/kerning_overrides/136/0 = Vector2(0, 0)
cache/0/86/0/kerning_overrides/146/0 = Vector2(0, 0)
cache/0/86/0/kerning_overrides/156/0 = Vector2(0, 0)
cache/0/86/0/kerning_overrides/161/0 = Vector2(0, 0)
cache/0/86/0/kerning_overrides/166/0 = Vector2(0, 0)
cache/0/86/0/kerning_overrides/171/0 = Vector2(0, 0)
cache/0/86/0/kerning_overrides/176/0 = Vector2(0, 0)
cache/0/86/0/kerning_overrides/181/0 = Vector2(0, 0)
cache/0/86/0/kerning_overrides/141/0 = Vector2(0, 0)
cache/0/86/0/kerning_overrides/121/0 = Vector2(0, 0)
cache/0/86/0/kerning_overrides/111/0 = Vector2(0, 0)
cache/0/86/0/kerning_overrides/101/0 = Vector2(0, 0)
cache/0/86/0/kerning_overrides/86/0 = Vector2(0, 0)
cache/0/86/0/kerning_overrides/66/0 = Vector2(0, 0)
cache/0/86/0/kerning_overrides/76/0 = Vector2(0, 0)
cache/0/86/0/kerning_overrides/14/0 = Vector2(0, 0)
cache/0/86/0/kerning_overrides/30/0 = Vector2(0, 0)
cache/0/66/0/ascent = 0.0
cache/0/66/0/descent = 0.0
cache/0/66/0/underline_position = 0.0
cache/0/66/0/underline_thickness = 0.0
cache/0/66/0/scale = 1.0
cache/0/66/0/kerning_overrides/16/0 = Vector2(0, 0)
cache/0/66/0/kerning_overrides/26/0 = Vector2(0, 0)
cache/0/66/0/kerning_overrides/31/0 = Vector2(0, 0)
cache/0/66/0/kerning_overrides/46/0 = Vector2(0, 0)
cache/0/66/0/kerning_overrides/56/0 = Vector2(0, 0)
cache/0/66/0/kerning_overrides/61/0 = Vector2(0, 0)
cache/0/66/0/kerning_overrides/71/0 = Vector2(0, 0)
cache/0/66/0/kerning_overrides/81/0 = Vector2(0, 0)
cache/0/66/0/kerning_overrides/91/0 = Vector2(0, 0)
cache/0/66/0/kerning_overrides/96/0 = Vector2(0, 0)
cache/0/66/0/kerning_overrides/106/0 = Vector2(0, 0)
cache/0/66/0/kerning_overrides/116/0 = Vector2(0, 0)
cache/0/66/0/kerning_overrides/126/0 = Vector2(0, 0)
cache/0/66/0/kerning_overrides/131/0 = Vector2(0, 0)
cache/0/66/0/kerning_overrides/136/0 = Vector2(0, 0)
cache/0/66/0/kerning_overrides/146/0 = Vector2(0, 0)
cache/0/66/0/kerning_overrides/156/0 = Vector2(0, 0)
cache/0/66/0/kerning_overrides/161/0 = Vector2(0, 0)
cache/0/66/0/kerning_overrides/166/0 = Vector2(0, 0)
cache/0/66/0/kerning_overrides/171/0 = Vector2(0, 0)
cache/0/66/0/kerning_overrides/176/0 = Vector2(0, 0)
cache/0/66/0/kerning_overrides/181/0 = Vector2(0, 0)
cache/0/66/0/kerning_overrides/141/0 = Vector2(0, 0)
cache/0/66/0/kerning_overrides/121/0 = Vector2(0, 0)
cache/0/66/0/kerning_overrides/111/0 = Vector2(0, 0)
cache/0/66/0/kerning_overrides/101/0 = Vector2(0, 0)
cache/0/66/0/kerning_overrides/86/0 = Vector2(0, 0)
cache/0/66/0/kerning_overrides/66/0 = Vector2(0, 0)
cache/0/66/0/kerning_overrides/76/0 = Vector2(0, 0)
cache/0/66/0/kerning_overrides/14/0 = Vector2(0, 0)
cache/0/66/0/kerning_overrides/30/0 = Vector2(0, 0)
cache/0/76/0/ascent = 0.0
cache/0/76/0/descent = 0.0
cache/0/76/0/underline_position = 0.0
cache/0/76/0/underline_thickness = 0.0
cache/0/76/0/scale = 1.0
cache/0/76/0/kerning_overrides/16/0 = Vector2(0, 0)
cache/0/76/0/kerning_overrides/26/0 = Vector2(0, 0)
cache/0/76/0/kerning_overrides/31/0 = Vector2(0, 0)
cache/0/76/0/kerning_overrides/46/0 = Vector2(0, 0)
cache/0/76/0/kerning_overrides/56/0 = Vector2(0, 0)
cache/0/76/0/kerning_overrides/61/0 = Vector2(0, 0)
cache/0/76/0/kerning_overrides/71/0 = Vector2(0, 0)
cache/0/76/0/kerning_overrides/81/0 = Vector2(0, 0)
cache/0/76/0/kerning_overrides/91/0 = Vector2(0, 0)
cache/0/76/0/kerning_overrides/96/0 = Vector2(0, 0)
cache/0/76/0/kerning_overrides/106/0 = Vector2(0, 0)
cache/0/76/0/kerning_overrides/116/0 = Vector2(0, 0)
cache/0/76/0/kerning_overrides/126/0 = Vector2(0, 0)
cache/0/76/0/kerning_overrides/131/0 = Vector2(0, 0)
cache/0/76/0/kerning_overrides/136/0 = Vector2(0, 0)
cache/0/76/0/kerning_overrides/146/0 = Vector2(0, 0)
cache/0/76/0/kerning_overrides/156/0 = Vector2(0, 0)
cache/0/76/0/kerning_overrides/161/0 = Vector2(0, 0)
cache/0/76/0/kerning_overrides/166/0 = Vector2(0, 0)
cache/0/76/0/kerning_overrides/171/0 = Vector2(0, 0)
cache/0/76/0/kerning_overrides/176/0 = Vector2(0, 0)
cache/0/76/0/kerning_overrides/181/0 = Vector2(0, 0)
cache/0/76/0/kerning_overrides/141/0 = Vector2(0, 0)
cache/0/76/0/kerning_overrides/121/0 = Vector2(0, 0)
cache/0/76/0/kerning_overrides/111/0 = Vector2(0, 0)
cache/0/76/0/kerning_overrides/101/0 = Vector2(0, 0)
cache/0/76/0/kerning_overrides/86/0 = Vector2(0, 0)
cache/0/76/0/kerning_overrides/66/0 = Vector2(0, 0)
cache/0/76/0/kerning_overrides/76/0 = Vector2(0, 0)
cache/0/76/0/kerning_overrides/14/0 = Vector2(0, 0)
cache/0/76/0/kerning_overrides/30/0 = Vector2(0, 0)
cache/0/14/0/ascent = 0.0
cache/0/14/0/descent = 0.0
cache/0/14/0/underline_position = 0.0
cache/0/14/0/underline_thickness = 0.0
cache/0/14/0/scale = 1.0
cache/0/14/0/kerning_overrides/16/0 = Vector2(0, 0)
cache/0/14/0/kerning_overrides/26/0 = Vector2(0, 0)
cache/0/14/0/kerning_overrides/31/0 = Vector2(0, 0)
cache/0/14/0/kerning_overrides/46/0 = Vector2(0, 0)
cache/0/14/0/kerning_overrides/56/0 = Vector2(0, 0)
cache/0/14/0/kerning_overrides/61/0 = Vector2(0, 0)
cache/0/14/0/kerning_overrides/71/0 = Vector2(0, 0)
cache/0/14/0/kerning_overrides/81/0 = Vector2(0, 0)
cache/0/14/0/kerning_overrides/91/0 = Vector2(0, 0)
cache/0/14/0/kerning_overrides/96/0 = Vector2(0, 0)
cache/0/14/0/kerning_overrides/106/0 = Vector2(0, 0)
cache/0/14/0/kerning_overrides/116/0 = Vector2(0, 0)
cache/0/14/0/kerning_overrides/126/0 = Vector2(0, 0)
cache/0/14/0/kerning_overrides/131/0 = Vector2(0, 0)
cache/0/14/0/kerning_overrides/136/0 = Vector2(0, 0)
cache/0/14/0/kerning_overrides/146/0 = Vector2(0, 0)
cache/0/14/0/kerning_overrides/156/0 = Vector2(0, 0)
cache/0/14/0/kerning_overrides/161/0 = Vector2(0, 0)
cache/0/14/0/kerning_overrides/166/0 = Vector2(0, 0)
cache/0/14/0/kerning_overrides/171/0 = Vector2(0, 0)
cache/0/14/0/kerning_overrides/176/0 = Vector2(0, 0)
cache/0/14/0/kerning_overrides/181/0 = Vector2(0, 0)
cache/0/14/0/kerning_overrides/141/0 = Vector2(0, 0)
cache/0/14/0/kerning_overrides/121/0 = Vector2(0, 0)
cache/0/14/0/kerning_overrides/111/0 = Vector2(0, 0)
cache/0/14/0/kerning_overrides/101/0 = Vector2(0, 0)
cache/0/14/0/kerning_overrides/86/0 = Vector2(0, 0)
cache/0/14/0/kerning_overrides/66/0 = Vector2(0, 0)
cache/0/14/0/kerning_overrides/76/0 = Vector2(0, 0)
cache/0/14/0/kerning_overrides/14/0 = Vector2(0, 0)
cache/0/14/0/kerning_overrides/30/0 = Vector2(0, 0)
cache/0/30/0/ascent = 0.0
cache/0/30/0/descent = 0.0
cache/0/30/0/underline_position = 0.0
cache/0/30/0/underline_thickness = 0.0
cache/0/30/0/scale = 1.0
cache/0/30/0/kerning_overrides/16/0 = Vector2(0, 0)
cache/0/30/0/kerning_overrides/26/0 = Vector2(0, 0)
cache/0/30/0/kerning_overrides/31/0 = Vector2(0, 0)
cache/0/30/0/kerning_overrides/46/0 = Vector2(0, 0)
cache/0/30/0/kerning_overrides/56/0 = Vector2(0, 0)
cache/0/30/0/kerning_overrides/61/0 = Vector2(0, 0)
cache/0/30/0/kerning_overrides/71/0 = Vector2(0, 0)
cache/0/30/0/kerning_overrides/81/0 = Vector2(0, 0)
cache/0/30/0/kerning_overrides/91/0 = Vector2(0, 0)
cache/0/30/0/kerning_overrides/96/0 = Vector2(0, 0)
cache/0/30/0/kerning_overrides/106/0 = Vector2(0, 0)
cache/0/30/0/kerning_overrides/116/0 = Vector2(0, 0)
cache/0/30/0/kerning_overrides/126/0 = Vector2(0, 0)
cache/0/30/0/kerning_overrides/131/0 = Vector2(0, 0)
cache/0/30/0/kerning_overrides/136/0 = Vector2(0, 0)
cache/0/30/0/kerning_overrides/146/0 = Vector2(0, 0)
cache/0/30/0/kerning_overrides/156/0 = Vector2(0, 0)
cache/0/30/0/kerning_overrides/161/0 = Vector2(0, 0)
cache/0/30/0/kerning_overrides/166/0 = Vector2(0, 0)
cache/0/30/0/kerning_overrides/171/0 = Vector2(0, 0)
cache/0/30/0/kerning_overrides/176/0 = Vector2(0, 0)
cache/0/30/0/kerning_overrides/181/0 = Vector2(0, 0)
cache/0/30/0/kerning_overrides/141/0 = Vector2(0, 0)
cache/0/30/0/kerning_overrides/121/0 = Vector2(0, 0)
cache/0/30/0/kerning_overrides/111/0 = Vector2(0, 0)
cache/0/30/0/kerning_overrides/101/0 = Vector2(0, 0)
cache/0/30/0/kerning_overrides/86/0 = Vector2(0, 0)
cache/0/30/0/kerning_overrides/66/0 = Vector2(0, 0)
cache/0/30/0/kerning_overrides/76/0 = Vector2(0, 0)
cache/0/30/0/kerning_overrides/14/0 = Vector2(0, 0)
cache/0/30/0/kerning_overrides/30/0 = Vector2(0, 0)

[node name="MainMenu" type="Control"]
layout_mode = 3
anchors_preset = 15
anchor_right = 1.0
anchor_bottom = 1.0
grow_horizontal = 2
grow_vertical = 2
script = ExtResource("1_17638")
file_path = "res://Levels/level.tscn"

[node name="ColorRect" type="ColorRect" parent="."]
layout_mode = 1
anchors_preset = 15
anchor_right = 1.0
anchor_bottom = 1.0
grow_horizontal = 2
grow_vertical = 2
color = Color(0.380392, 0.262745, 0.164706, 1)

[node name="Title" type="RichTextLabel" parent="."]
layout_mode = 1
anchors_preset = 5
anchor_left = 0.5
anchor_right = 0.5
offset_left = -299.0
offset_top = 84.0
offset_right = 299.0
offset_bottom = 220.0
grow_horizontal = 2
theme_override_colors/default_color = Color(1, 0.882353, 0, 1)
theme_override_fonts/normal_font = SubResource("SystemFont_j7urb")
theme_override_font_sizes/normal_font_size = 91
text = "Project Boost"
fit_content = true
shortcut_keys_enabled = false
language = "en"

[node name="VBoxContainer" type="VBoxContainer" parent="."]
layout_mode = 1
anchors_preset = 8
anchor_left = 0.5
anchor_top = 0.5
anchor_right = 0.5
anchor_bottom = 0.5
offset_left = -122.0
offset_top = -84.0
offset_right = 122.0
offset_bottom = 85.0
grow_horizontal = 2
grow_vertical = 2
alignment = 1

[node name="PlayButton" type="Button" parent="VBoxContainer"]
layout_mode = 2
theme_override_fonts/font = SubResource("FontFile_wbaqw")
theme_override_font_sizes/font_size = 30
text = "Play"

[node name="ExitButton" type="Button" parent="VBoxContainer"]
layout_mode = 2
theme_override_fonts/font = SubResource("FontFile_wbaqw")
theme_override_font_sizes/font_size = 30
text = "Quit
"

[node name="About" type="RichTextLabel" parent="."]
layout_mode = 1
anchors_preset = 2
anchor_top = 1.0
anchor_bottom = 1.0
offset_top = -46.0
offset_right = 135.0
grow_vertical = 0
text = "By Azora Husky
Version 1.0"
fit_content = true

[connection signal="pressed" from="VBoxContainer/PlayButton" to="." method="_on_play_button_pressed"]
[connection signal="pressed" from="VBoxContainer/ExitButton" to="." method="_on_exit_button_pressed"]
